-------------------------------------------------------------------------------
Test set: com.casa.direction.EastTest
-------------------------------------------------------------------------------
Tests run: 0, Failures: 0, Errors: 0, Skipped: 0, Time elapsed: 0.001 sec
